<svg version="1.1" xmlns="http://www.w3.org/2000/svg" viewBox="0 0 1024 1024">
<path d="M546.95 726.385l256.361-228.238c14.417-12.836 36.509-11.553 49.344 2.864s11.553 36.509-2.864 49.344l-314.052 279.602c-6.697 5.962-15.116 8.911-23.516 8.845-0.074 0-0.149 0-0.223 0-10.636 0-20.161-4.751-26.571-12.245l-311.178-276.165c-14.437-12.813-15.754-34.902-2.941-49.339s34.902-15.754 49.339-2.941l256.402 227.552v-690.714c0-19.302 15.647-34.95 34.95-34.95s34.95 15.647 34.95 34.95v691.439zM896.453 1024h-768.903c-19.302 0-34.95-15.647-34.95-34.95s15.647-34.95 34.95-34.95h768.903c19.302 0 34.95 15.647 34.95 34.95s-15.647 34.95-34.95 34.95z"></path>
</svg>
