<svg version="1.1" xmlns="http://www.w3.org/2000/svg" viewBox="0 0 1024 1024">
<path d="M134.737 269.473h754.527v646.737c0 59.53-48.259 107.789-107.789 107.789h-538.948c-59.53 0-107.789-48.259-107.789-107.789v-646.737z"></path>
<path d="M134.737 53.895h754.527c29.765 0 53.895 24.13 53.895 53.895s-24.13 53.895-53.895 53.895h-754.527c-29.765 0-53.895-24.13-53.895-53.895s24.13-53.895 53.895-53.895z"></path>
<path d="M458.106 0h107.789c29.765 0 53.895 24.13 53.895 53.895s-24.13 53.895-53.895 53.895h-107.789c-29.765 0-53.895-24.13-53.895-53.895s24.13-53.895 53.895-53.895z"></path>
</svg>
